…
uk_names <- enriched_countries[282:287]
enriched$Country_Region[enriched$Country_Region %in% uk_names] <- "United Kingdom"

enriched$Country_Region[enriched$Country_Region %in% enriched_countries[109:117]] <- "France"

enriched$Country_Region[enriched$Country_Region %in% enriched_countries[92:93]] <- "Denmark"
enriched$Country_Region[enriched$Country_Region %in% enriched_countries[174:176]] <- "Netherlands"


# what dates we have?
enriched %>% group_by(Country_Region, Province_State) %>% select(Date) %>% summarise(max = max(Date), min = min(Date))
```

```
## # A tibble: 294 x 4
## # Groups:   Country_Region [173]
##    Country_Region      Province_State               max        min       
##    <chr>               <chr>                        <date>     <date>    
##  1 Afghanistan         <NA>                         2020-03-25 2020-01-22
##  2 Albania             <NA>                         2020-03-25 2020-01-22
##  3 Algeria             <NA>                         2020-03-25 2020-01-22
##  4 Andorra             <NA>                         2020-03-25 2020-01-22
##  5 Angola              <NA>                         2020-03-25 2020-01-22
##  6 Antigua and Barbuda <NA>                         2020-03-25 2020-01-22
##  7 Argentina           <NA>                         2020-03-25 2020-01-22
##  8 Armenia             <NA>                         2020-03-25 2020-01-22
##  9 Australia           Australian Capital Territory 2020-03-25 2020-01-22
## 10 Australia           New South Wales              2020-03-25 2020-01-22
## # ... with 284 more rows
```

```r
train %>% group_by(Country_Region, Province_State) %>% select(Date) %>% summarise(max = max(Date), min = min(Date))
```

```
## # A tibble: 313 x 4
## # Groups:   Country_Region [184]
##    Country_Region      Province_State               max        min       
##    <chr>               <chr>                        <date>     <date>    
##  1 Afghanistan         <NA>                         2020-04-11 2020-01-22
##  2 Albania             <NA>                         2020-04-11 2020-01-22
##  3 Algeria             <NA>                         2020-04-11 2020-01-22
##  4 Andorra             <NA>                         2020-04-11 2020-01-22
##  5 Angola              <NA>                         2020-04-11 2020-01-22
##  6 Antigua and Barbuda <NA>                         2020-04-11 2020-01-22
##  7 Argentina           <NA>                         2020-04-11 2020-01-22
##  8 Armenia             <NA>                         2020-04-11 2020-01-22
##  9 Australia           Australian Capital Territory 2020-04-11 2020-01-22
## 10 Australia           New South Wales              2020-04-11 2020-01-22
## # ... with 303 more rows
```

```r
test %>% group_by(Country_Region, Province_State) %>% select(Date) %>% summarise(max = max(Date), min = min(Date))
```

```
## # A tibble: 313 x 4
## # Groups:   Country_Region [184]
##    Country_Region      Province_State               max        min       
##    <chr>               <chr>                        <date>     <date>    
##  1 Afghanistan         <NA>                         2020-05-14 2020-04-02
##  2 Albania             <NA>                         2020-05-14 2020-04-02
##  3 Algeria             <NA>                         2020-05-14 2020-04-02
##  4 Andorra             <NA>                         2020-05-14 2020-04-02
##  5 Angola              <NA>                         2020-05-14 2020-04-02
##  6 Antigua and Barbuda <NA>                         2020-05-14 2020-04-02
##  7 Argentina           <NA>                         2020-05-14 2020-04-02
##  8 Armenia             <NA>                         2020-05-14 2020-04-02
##  9 Australia           Australian Capital Territory 2020-05-14 2020-04-02
## 10 Australia           New South Wales              2020-05-14 2020-04-02
## # ... with 303 more rows
```
…
